<svg xmlns="http://www.w3.org/2000/svg" viewBox="0 0 66 66">
  <g>
    <path fill="#211f20" d="M12-0v33l24-15" />
    <path fill="#737373" d="M12+33v33l24-18" />
    <path fill="#f1680d" d="M36+18v30l24-15" />
    <path fill="transparent" d="M36+48v-30l-24 15z" />
  </g>
</svg>
